Barrett’s Oesophagus • EndoMineR
…
Figure 2: Worst grade dysplasia/cancer function

In order to determine the basic number of EMR, RFA and APC a function called BarrettsBasicNumbers is provided which outputs a geom_line plot with the information on it.

BarrettsBasicNumbers(b3,"Date.x")

## $ProcNumbers
## # A tibble: 43 x 3
## # Groups:   EVENT [?]
##    EVENT  year     n
##    <chr> <dbl> <int>
##  1 APC    2001     7
##  2 APC    2002     8
##  3 APC    2003     7
##  4 APC    2004     8
##  5 APC    2005     5
##  6 APC    2006    10
##  7 APC    2007    11
##  8 APC    2008     8
##  9 APC    2009     7
## 10 APC    2010     3
## # ... with 33 more rows
## 
## $ProcNumbersPlot
…
