Barretts Basic Numbers — BarrettsBasicNumbers • EndoMineR
…
#> Error in `[.data.frame`(x, , y): undefined columns selected
b2<-BarrettsDataAccord_PathStage(b1,'Histology')
b3<-BarrettsDataAccord_Event(b2,'Histology',
 'ProcedurePerformed','OGDReportWhole','Findings')
# The follow-up group depends on the histology and the Prague score for a
# patient so it takes the processed Barrett's data and then looks in the
# Findings column for permutations of the Prague score.
b4<-BarrettsDataAccord_FUGroup(b3,'Findings')
colnames(b4)[colnames(b4) == 'pHospitalNum'] <- 'HospitalNumber'
# The function groups the overall number of surveillance cases over time
# The endoscopic episodes should be selected according to surveillance
# being the indication prior to using this function
BarrettsBasicNumbers(b4,"Date.x")
#> $ProcNumbers
#> # A tibble: 27 x 3
#> # Groups:   EVENT [?]
#>    EVENT  year     n
#>    <chr> <dbl> <int>
#>  1   EMR  2001     2
#>  2   EMR  2002     1
#>  3   EMR  2003     2
#>  4   EMR  2004     2
#>  5   EMR  2006     3
#>  6   EMR  2009     2
#>  7   EMR  2010     1
#>  8   EMR  2011     2
#>  9   EMR  2012     1
#> 10   EMR  2013     1
#> # ... with 17 more rows
…
