CRIM status Barrett's — Barretts_CRIM • EndoMineR
…
v<-Endomerge2(Myendo,'Dateofprocedure','HospitalNumber',v,'Dateofprocedure',
'HospitalNumber')
# The function relies on the other Barrett's functions being run as well:
b1<-Barretts_PragueScore(v,'Findings')
b2<-Barretts_PathStage(b1,'Histology')
b3<-Barretts_EventType(b2,'Histology',
'ProcedurePerformed','Indications','Findings')
colnames(b3)[colnames(b3) == 'pHospitalNum'] <- 'HospitalNumber'
# The function groups the procedures by patient and then looks at those which
# have 'nothing' in the event column (which means biopsies only) which was
# preceded by radiofrequency ablation (RFA) so that these patients are
# labelled as having clearance of intestinal metaplasia. The result is a true
# or false column.
Barretts_CRIM(b3,'HospitalNumber',"EVENT")
#> # A tibble: 578 x 44
#> # Groups:   HospitalNumber [97]
#>    PathReportWhole          HospitalNumber PatientName.x DOB   GeneralPractiti…
#>    <chr>                    <chr>          <chr>         <chr> <chr>           
#>  1 "SP-22-4817508\nHospita… " A1648588\n"  "  Page, Aie… "  1… " Dr\n Kane, Sa…
#>  2 "SP-24-9461967\nHospita… " A1648588\n"  "  al-Zafar,… "  1… " Dr\n Gavin, L…
#>  3 "SP-77-2775965\nHospita… " A1648588\n"  "  al-Ebrahi… "  1… " Dr\n Sands, M…
#>  4 "SP-72-6139190\nHospita… " A1648588\n"  "  Jamerson,… "  1… " Dr\n al-Korom…
#>  5 "SP-83-6838873\nHospita… " A1648588\n"  "  Fitzpatri… "  1… " Dr\n Miller, …
#>  6 "SP-29-1590254\nHospita… " A1648588\n"  "  el-Radwan… "  1… " Dr\n al-Radwa…
#>  7 "SP-79-1431892\nHospita… " A3962018\n"  "  el-Sadri,… "  1… " Dr\n Baker, E…
#>  8 "SP-84-9745332\nHospita… " A3962018\n"  "  Vaughan, … "  1… " Dr\n Lopez Co…
#>  9 "SP-57-5567005\nHospita… " A3962018\n"  "  Thomas-Mo… "  1… " Dr\n Grano, K…
#> 10 "SP-59-7507017\nHospita… " A3962018\n"  "  el-Murad,… "  1… " Dr\n Ten, Che…
#> # ... with 568 more rows, and 39 more variables: Date.x <date>,
#> #   ClinicalDetails <chr>, Macroscopicdescription <chr>, Histology <chr>,
#> #   Diagnosis <chr>, AccessionNumber <chr>, Dx_Simplified <chr>, Cancer <chr>,
#> #   Dysplasia <chr>, GIST <chr>, NumbOfBx <dbl>, BxSize <dbl>,
#> #   OGDReportWhole <chr>, eHospitalNum <chr>, PatientName.y <chr>,
#> #   GeneralPractitioner.y <chr>, Date.y <date>, Endoscopist <chr>,
#> #   Secondendoscopist <chr>, Medications <chr>, Instrument <chr>,
#> #   ExtentofExam <chr>, Indications <chr>, ProcedurePerformed <chr>,
#> #   Findings <chr>, NA. <dbl>, NA..1 <dbl>, NA..2 <dbl>, NA..3 <dbl>,
…
