Extract the last test done by a patient only — SurveilLastTest • EndoMineR
…
     Arguments

      dataframe
      dataframe

      HospNum_Id
      Patient ID

      Endo_ResultPerformed
      Date of the Endoscopy

    Examples

SurveilLastTest(Myendo,'HospitalNumber','Dateofprocedure')
#> # A tibble: 100 x 21
#> # Groups:   HospitalNumber [100]
#>    OGDReportWhole   HospitalNumber PatientName GeneralPractiti… Dateofprocedure
#>    <chr>            <chr>          <chr>       <chr>            <date>         
#>  1 "Hospital: Rand… " J1337672\n"  "  el-Miah… " Dr\n Helstrom… 2013-03-25     
#>  2 "Hospital: Rand… " Q7176341\n"  "  Cusiman… " Dr\n Taylor, … 2014-05-31     
#>  3 "Hospital: Rand… " M5148114\n"  "  Archule… " Dr\n al-Ghazi… 2014-06-18     
#>  4 "Hospital: Rand… " Q7729897\n"  "  Schroed… " Dr\n Patterso… 2014-07-19     
#>  5 "Hospital: Rand… " R3882435\n"  "  Nobrega… " Dr\n Meseke, … 2014-11-15     
#>  6 "Hospital: Rand… " S1951882\n"  "  Clanton… " Dr\n Gallegos… 2014-11-16     
#>  7 "Hospital: Rand… " P2080807\n"  "  Linscom… " Dr\n Alarid, … 2014-12-01     
#>  8 "Hospital: Rand… " W2120051\n"  "  Leach, … " Dr\n Carr, Al… 2014-12-27     
#>  9 "Hospital: Rand… " E7461659\n"  "  Vue, Ce… " Dr\n Scraggs,… 2015-05-02     
#> 10 "Hospital: Rand… " D9082891\n"  "  Sanchez… " Dr\n Yu, Nish… 2015-06-05     
#> # ... with 90 more rows, and 16 more variables: Endoscopist <chr>,
#> #   Secondendoscopist <chr>, Medications <chr>, Instrument <chr>,
#> #   ExtentofExam <chr>, Indications <chr>, ProcedurePerformed <chr>,
#> #   Findings <chr>, NA. <dbl>, NA..1 <dbl>, NA..2 <dbl>, NA..3 <dbl>,
#> #   NA..4 <dbl>, NA..5 <dbl>, Fent <dbl>, Midaz <dbl>
…
