Extracts the first test only per patient — SurveilFirstTest • EndoMineR
…
      dataframe
      dataframe

      HospNum_Id
      Patient ID

      Endo_ResultPerformed
      Date of the Endoscopy

    Examples

SurveilFirstTest(Myendo,'HospitalNumber',
'Dateofprocedure')
#> # A tibble: 100 x 21
#> # Groups:   HospitalNumber [100]
#>    OGDReportWhole   HospitalNumber PatientName GeneralPractiti… Dateofprocedure
#>    <chr>            <chr>          <chr>       <chr>            <date>         
#>  1 "Hospital: Rand… " F7957976\n"  "  Salle I… " Dr\n Lee, Nao… 2001-01-03     
#>  2 "Hospital: Rand… " Y8594667\n"  "  Sisa, A… " Dr\n Vo, Alic… 2001-01-04     
#>  3 "Hospital: Rand… " Z6299612\n"  "  Keese, … " Dr\n Sheh, Ca… 2001-01-08     
#>  4 "Hospital: Rand… " R8004923\n"  "  Quenzer… " Dr\n al-Hamma… 2001-01-15     
#>  5 "Hospital: Rand… " U1759838\n"  "  Brown, … " Dr\n Ruybal, … 2001-01-16     
#>  6 "Hospital: Rand… " M4134709\n"  "  Valle, … " Dr\n Escamill… 2001-01-21     
#>  7 "Hospital: Rand… " A1648588\n"  "  Pirkey,… " Dr\n el-Mogha… 2001-01-25     
#>  8 "Hospital: Rand… " I3619361\n"  "  Lordema… " Dr\n Hayden, … 2001-01-27     
#>  9 "Hospital: Rand… " E7331206\n"  "  Morris,… " Dr\n Cherry, … 2001-01-30     
#> 10 "Hospital: Rand… " Q7597311\n"  "  al-Gad,… " Dr\n Lane, Ar… 2001-02-01     
#> # ... with 90 more rows, and 16 more variables: Endoscopist <chr>,
#> #   Secondendoscopist <chr>, Medications <chr>, Instrument <chr>,
#> #   ExtentofExam <chr>, Indications <chr>, ProcedurePerformed <chr>,
#> #   Findings <chr>, NA. <dbl>, NA..1 <dbl>, NA..2 <dbl>, NA..3 <dbl>,
#> #   NA..4 <dbl>, NA..5 <dbl>, Fent <dbl>, Midaz <dbl>
…
